<?xml version="1.0" encoding="utf-8"?>
<!-- Generator: Adobe Illustrator 19.1.0, SVG Export Plug-In . SVG Version: 6.00 Build 0)  -->
<svg version="1.1" xmlns="http://www.w3.org/2000/svg" xmlns:xlink="http://www.w3.org/1999/xlink" x="0px" y="0px" width="24px"
	 height="24px" viewBox="0 0 24 24" enable-background="new 0 0 24 24" xml:space="preserve">
	<path
    d="M10,9V5l-7,7l7,7v-4.1c5,0,8.5,1.6,11,5.1C20,15,17,10,10,9z"
    transform="scale(-1, 1) translate(-24 0)"
  />
</svg>
